…
## 2.3 시계열 데이터 import

``` r
students.all <-
  readxl::read_excel(
    "./data-raw/students.xlsx",
    sheet = 1,
    na = "-",
    skip = 16,
  )
students.all
```

    ## # A tibble: 132 × 18
    ##    연도  지역규모    학생…¹ 유치원  초등…² 중학교  고등…³  일반…⁴ 전문…⁵ 일반고 특목고 특성화고 자율고 특수…⁶
    ##    <chr> <chr>        <dbl>  <dbl>   <dbl>  <dbl>   <dbl>   <dbl>  <dbl>  <dbl>  <dbl>    <dbl>  <dbl>  <dbl>
    ##  1 1999  특별/광역… 4097895 227758 1807584 9.15e5 1121998  742693 379305      0      0        0      0  12217
    ##  2 1999  시         3110148 204246 1437516 6.73e5  783207  503531 279676      0      0        0      0   8375
    ##  3 1999  읍지역      685091  43160  303702 1.39e5  197522   94479 103043      0      0        0      0   1287
    ##  4 1999  면지역      639421  48456  319006 1.44e5  126273   50558  75715      0      0        0      0   1611
    ##  5 1999  특수지역    125803  10546   67729 2.54e4   22140    8128  14012      0      0        0      0      0
    ##  6 1999  계         8658358 534166 3935537 1.90e6 2251140 1399389 851751      0      0        0      0  23490
    ##  7 2000  특별/광역… 4000552 236482 1829901 8.89e5 1021767  697793 323974      0      0        0      0  12186
    ##  8 2000  시         3103632 204542 1483385 6.70e5  734251  478354 255897      0      0        0      0   8117
    ##  9 2000  읍지역      695929  46998  319742 1.43e5  184599   93651  90948      0      0        0      0   1316
    ## 10 2000  면지역      623192  48180  325516 1.33e5  113802   47484  66318      0      0        0      0   1986
    ## # … with 122 more rows, 4 more variables: 공민학교 <dbl>, 고등공민 <dbl>, 고등기술학교 <dbl>, 각종학교 <dbl>,
    ## #   and abbreviated variable names ¹​학생수계, ²​초등학교, ³​고등학교계, ⁴​일반계고, ⁵​전문계고, ⁶​특수학교

``` r
students <-
  students.all %>%
  filter(지역규모 == "계") %>%
  select(-지역규모)
students
```

    ## # A tibble: 22 × 17
    ##    연도  학생수계 유치원 초등학교  중학교  고등…¹  일반…² 전문…³ 일반고 특목고 특성화고 자율고 특수…⁴ 공민학교
    ##    <chr>    <dbl>  <dbl>    <dbl>   <dbl>   <dbl>   <dbl>  <dbl>  <dbl>  <dbl>    <dbl>  <dbl>  <dbl>    <dbl>
    ##  1 1999   8658358 534166  3935537 1896956 2251140 1399389 851751      0      0        0      0  23490      150
    ##  2 2000   8535867 545263  4019991 1860539 2071468 1324482 746986      0      0        0      0  23605      150
    ##  3 2001   8414423 545142  4089429 1831152 1911173 1259975 651198      0      0        0      0  23769      140
    ##  4 2002   8361933 550256  4138366 1841030 1795509 1220146 575363      0      0        0      0  23453      145
    ##  5 2003   8379775 546531  4175626 1854641 1766529 1224452 542077      0      0        0      0  24119      105
    ##  6 2004   8371630 541713  4116195 1933543 1746560 1232010 514550      0      0        0      0  23876      106
    ##  7 2005   8371421 541603  4022801 2010704 1762896 1259792 503104      0      0        0      0  23566       94
    ##  8 2006   8354891 545812  3925043 2075311 1775857 1281508 494349      0      0        0      0  23394       70
    ##  9 2007   8309932 541550  3829998 2063159 1841374 1347363 494011      0      0        0      0  23147       65
    ## 10 2008   8187782 537822  3672207 2038611 1906978 1419486 487492      0      0        0      0  23419       60
    ## # … with 12 more rows, 3 more variables: 고등공민 <dbl>, 고등기술학교 <dbl>, 각종학교 <dbl>, and abbreviated
    ## #   variable names ¹​고등학교계, ²​일반계고, ³​전문계고, ⁴​특수학교

``` r
students$연도 <- as.Date(paste0(students$연도, "-01-01"))
students
```

    ## # A tibble: 22 × 17
    ##    연도       학생수계 유치원 초등학교  중학교 고등학교계  일반…¹ 전문…² 일반고 특목고 특성화고 자율고 특수…³
    ##    <date>        <dbl>  <dbl>    <dbl>   <dbl>      <dbl>   <dbl>  <dbl>  <dbl>  <dbl>    <dbl>  <dbl>  <dbl>
    ##  1 1999-01-01  8658358 534166  3935537 1896956    2251140 1399389 851751      0      0        0      0  23490
    ##  2 2000-01-01  8535867 545263  4019991 1860539    2071468 1324482 746986      0      0        0      0  23605
    ##  3 2001-01-01  8414423 545142  4089429 1831152    1911173 1259975 651198      0      0        0      0  23769
    ##  4 2002-01-01  8361933 550256  4138366 1841030    1795509 1220146 575363      0      0        0      0  23453
    ##  5 2003-01-01  8379775 546531  4175626 1854641    1766529 1224452 542077      0      0        0      0  24119
    ##  6 2004-01-01  8371630 541713  4116195 1933543    1746560 1232010 514550      0      0        0      0  23876
    ##  7 2005-01-01  8371421 541603  4022801 2010704    1762896 1259792 503104      0      0        0      0  23566
    ##  8 2006-01-01  8354891 545812  3925043 2075311    1775857 1281508 494349      0      0        0      0  23394
    ##  9 2007-01-01  8309932 541550  3829998 2063159    1841374 1347363 494011      0      0        0      0  23147
    ## 10 2008-01-01  8187782 537822  3672207 2038611    1906978 1419486 487492      0      0        0      0  23419
    ## # … with 12 more rows, 4 more variables: 공민학교 <dbl>, 고등공민 <dbl>, 고등기술학교 <dbl>, 각종학교 <dbl>,
    ## #   and abbreviated variable names ¹​일반계고, ²​전문계고, ³​특수학교

``` r
students.ts <- ts(students, frequency = 1, start = 1999)
students.xts <- as.xts(students[-1], order.by = students$연도)
students.tsibble <- as_tsibble(students, index = 연도)
students.tsibble
```

    ## # A tsibble: 22 x 17 [1D]
    ##    연도       학생수계 유치원 초등학교  중학교 고등학교계  일반…¹ 전문…² 일반고 특목고 특성화고 자율고 특수…³
    ##    <date>        <dbl>  <dbl>    <dbl>   <dbl>      <dbl>   <dbl>  <dbl>  <dbl>  <dbl>    <dbl>  <dbl>  <dbl>
    ##  1 1999-01-01  8658358 534166  3935537 1896956    2251140 1399389 851751      0      0        0      0  23490
    ##  2 2000-01-01  8535867 545263  4019991 1860539    2071468 1324482 746986      0      0        0      0  23605
    ##  3 2001-01-01  8414423 545142  4089429 1831152    1911173 1259975 651198      0      0        0      0  23769
    ##  4 2002-01-01  8361933 550256  4138366 1841030    1795509 1220146 575363      0      0        0      0  23453
    ##  5 2003-01-01  8379775 546531  4175626 1854641    1766529 1224452 542077      0      0        0      0  24119
    ##  6 2004-01-01  8371630 541713  4116195 1933543    1746560 1232010 514550      0      0        0      0  23876
    ##  7 2005-01-01  8371421 541603  4022801 2010704    1762896 1259792 503104      0      0        0      0  23566
    ##  8 2006-01-01  8354891 545812  3925043 2075311    1775857 1281508 494349      0      0        0      0  23394
    ##  9 2007-01-01  8309932 541550  3829998 2063159    1841374 1347363 494011      0      0        0      0  23147
    ## 10 2008-01-01  8187782 537822  3672207 2038611    1906978 1419486 487492      0      0        0      0  23419
    ## # … with 12 more rows, 4 more variables: 공민학교 <dbl>, 고등공민 <dbl>, 고등기술학교 <dbl>, 각종학교 <dbl>,
    ## #   and abbreviated variable names ¹​일반계고, ²​전문계고, ³​특수학교
…
``` r
covid19 <-
  covid19 |>
  tidyr::pivot_wider(names_from = category, values_from = value)
#  tidyr::spread(category, value)
covid19
```

    ## # A tibble: 302 × 11
    ##    date       status `0-9세` `10-19세` `20-29세` `30-39세` `40-49세` `50-59세` `60-69세` `70-79세` `80세 이상`
    ##    <date>     <chr>    <dbl>     <dbl>     <dbl>     <dbl>     <dbl>     <dbl>     <dbl>     <dbl>       <dbl>
    ##  1 2020-04-09 신규         2         4        12         7         7         2         2         0           3
    ##  2 2020-04-10 신규         1         1         7         4         2         3         6         2           1
    ##  3 2020-04-11 신규         1         5         5         2         3         6         7         0           1
    ##  4 2020-04-12 신규         0         3        13         5         1         4         3         3           0
    ##  5 2020-04-13 신규         2         1        10         2         1         2         5         1           1
    ##  6 2020-04-14 신규         0         3         7         4         4         3         3         2           1
    ##  7 2020-04-15 신규         0         4         9         5         3         2         1         2           1
    ##  8 2020-04-16 신규         3         3         5         1         2         3         2         1           2
    ##  9 2020-04-17 신규         1         4         9         3         1         2         1         1           0
    ## 10 2020-04-18 신규         2         0         9         1         1         2         1         1           1
    ## # … with 292 more rows
…
