…
## 5.1 정상성, 비정상성

## 5.2지연과 차분

``` r
students |>
  select(연도, 학생수계) |>
  mutate(
    lag1 = lag(학생수계, 1),
    lag3 = lag(학생수계, 3)
  )
```

    ## # A tibble: 22 × 4
    ##    연도       학생수계    lag1    lag3
    ##    <date>        <dbl>   <dbl>   <dbl>
    ##  1 1999-01-01  8658358      NA      NA
    ##  2 2000-01-01  8535867 8658358      NA
    ##  3 2001-01-01  8414423 8535867      NA
    ##  4 2002-01-01  8361933 8414423 8658358
    ##  5 2003-01-01  8379775 8361933 8535867
    ##  6 2004-01-01  8371630 8379775 8414423
    ##  7 2005-01-01  8371421 8371630 8361933
    ##  8 2006-01-01  8354891 8371421 8379775
    ##  9 2007-01-01  8309932 8354891 8371630
    ## 10 2008-01-01  8187782 8309932 8371421
    ## # … with 12 more rows

``` r
library(timetk)
students |>
  select(연도, 학생수계) |>
  mutate(
    lag1 = lag_vec(학생수계, lag = 1),
    lag3 = lag_vec(학생수계, lag = 3)
  )
```

    ## # A tibble: 22 × 4
    ##    연도       학생수계    lag1    lag3
    ##    <date>        <dbl>   <dbl>   <dbl>
    ##  1 1999-01-01  8658358      NA      NA
    ##  2 2000-01-01  8535867 8658358      NA
    ##  3 2001-01-01  8414423 8535867      NA
    ##  4 2002-01-01  8361933 8414423 8658358
    ##  5 2003-01-01  8379775 8361933 8535867
    ##  6 2004-01-01  8371630 8379775 8414423
    ##  7 2005-01-01  8371421 8371630 8361933
    ##  8 2006-01-01  8354891 8371421 8379775
    ##  9 2007-01-01  8309932 8354891 8371630
    ## 10 2008-01-01  8187782 8309932 8371421
    ## # … with 12 more rows
…
``` r
students |>
  select(연도, 학생수계) |>
  mutate(
    lag1 = lag(학생수계, 1),
    lag3 = lag(학생수계, 3),
    diff1 = c(NA, diff(학생수계, lag = 1)),
    diff3 = c(NA, NA, NA, diff(학생수계, lag = 3))
  )
```

    ## # A tibble: 22 × 6
    ##    연도       학생수계    lag1    lag3   diff1   diff3
    ##    <date>        <dbl>   <dbl>   <dbl>   <dbl>   <dbl>
    ##  1 1999-01-01  8658358      NA      NA      NA      NA
    ##  2 2000-01-01  8535867 8658358      NA -122491      NA
    ##  3 2001-01-01  8414423 8535867      NA -121444      NA
    ##  4 2002-01-01  8361933 8414423 8658358  -52490 -296425
    ##  5 2003-01-01  8379775 8361933 8535867   17842 -156092
    ##  6 2004-01-01  8371630 8379775 8414423   -8145  -42793
    ##  7 2005-01-01  8371421 8371630 8361933    -209    9488
    ##  8 2006-01-01  8354891 8371421 8379775  -16530  -24884
    ##  9 2007-01-01  8309932 8354891 8371630  -44959  -61698
    ## 10 2008-01-01  8187782 8309932 8371421 -122150 -183639
    ## # … with 12 more rows

``` r
students |>
  select(연도, 학생수계) |>
  mutate(
    diff1 = diff_vec(학생수계, lag = 1),
    diff3 = diff_vec(학생수계, lag = 3)
  )
```

    ## diff_vec(): Initial values: 8658358

    ## diff_vec(): Initial values: 8658358, 8535867, 8414423

    ## # A tibble: 22 × 4
    ##    연도       학생수계   diff1   diff3
    ##    <date>        <dbl>   <dbl>   <dbl>
    ##  1 1999-01-01  8658358      NA      NA
    ##  2 2000-01-01  8535867 -122491      NA
    ##  3 2001-01-01  8414423 -121444      NA
    ##  4 2002-01-01  8361933  -52490 -296425
    ##  5 2003-01-01  8379775   17842 -156092
    ##  6 2004-01-01  8371630   -8145  -42793
    ##  7 2005-01-01  8371421    -209    9488
    ##  8 2006-01-01  8354891  -16530  -24884
    ##  9 2007-01-01  8309932  -44959  -61698
    ## 10 2008-01-01  8187782 -122150 -183639
    ## # … with 12 more rows
…
