…
``` r
employees.tsibble |>
  index_by(yearqtr = ~ yearquarter(.)) |>
  summarize(sum.qtrly = sum(total))
```

    ## # A tsibble: 32 x 2 [1Q]
    ##    yearqtr sum.qtrly
    ##      <qtr>     <int>
    ##  1 2013 Q1     73238
    ##  2 2013 Q2     76618
    ##  3 2013 Q3     76895
    ##  4 2013 Q4     76841
    ##  5 2014 Q1     75629
    ##  6 2014 Q2     78275
    ##  7 2014 Q3     78676
    ##  8 2014 Q4     78186
    ##  9 2015 Q1     76629
    ## 10 2015 Q2     79024
    ## # … with 22 more rows

``` r
covid19.tsibble[, c(1, 3)] |>
  index_by(yw = ~ yearweek(.)) |>
  summarize(sum.weekly = sum(`0-9세`))
```

    ## # A tsibble: 45 x 2 [1W]
    ##          yw sum.weekly
    ##      <week>      <dbl>
    ##  1 2020 W15          4
    ##  2 2020 W16          8
    ##  3 2020 W17          3
    ##  4 2020 W18         -1
    ##  5 2020 W19          1
    ##  6 2020 W20          6
    ##  7 2020 W21          1
    ##  8 2020 W22          8
    ##  9 2020 W23          7
    ## 10 2020 W24          3
    ## # … with 35 more rows
…
``` r
covid19.tsibble[, c(1, 3)] |>
  index_by(fourday = ~ floor_date(., "4 day")) |>
  summarize(sum.4days = sum(`0-9세`))
```

    ## # A tsibble: 81 x 2 [1D]
    ##    fourday    sum.4days
    ##    <date>         <dbl>
    ##  1 2020-04-09         4
    ##  2 2020-04-13         5
    ##  3 2020-04-17         3
    ##  4 2020-04-21         0
    ##  5 2020-04-25         2
    ##  6 2020-04-29         0
    ##  7 2020-05-01         0
    ##  8 2020-05-05         1
    ##  9 2020-05-09         1
    ## 10 2020-05-13         5
    ## # … with 71 more rows
…
``` r
employees |>
  filter(year(time) == 2019 & month(time) == 5)
```

    ##         time total employees.edu
    ## 1 2019-05-01 27322          1884

``` r
covid19 |>
  filter(between(day(date), 3, 7))
```

    ## # A tibble: 50 × 11
    ##    date       status `0-9세` `10-19세` `20-29세` `30-39세` `40-49세` `50-59세` `60-69세` `70-79세` `80세 이상`
    ##    <date>     <chr>    <dbl>     <dbl>     <dbl>     <dbl>     <dbl>     <dbl>     <dbl>     <dbl>       <dbl>
    ##  1 2020-05-03 신규         0         1         2         3         2         0         2         1           2
    ##  2 2020-05-04 신규         0         0         2         1         3         0         2         0           0
    ##  3 2020-05-05 신규         0         0         0         1         1         1         0         0           0
    ##  4 2020-05-06 신규         0         0         0         1         0         0         1         0           0
    ##  5 2020-05-07 신규         0         1         2         1         0         0         0         0           0
    ##  6 2020-06-03 신규         1         2         5         6         5         9        15         6           0
    ##  7 2020-06-04 신규         1         0         5         3         3         9         9         6           3
    ##  8 2020-06-05 신규         1         2         5         2         3         7        10         7           2
    ##  9 2020-06-06 신규         3         1         2         6        11         8         9         8           3
    ## 10 2020-06-07 신규         1         6         3         6         8        11        12         8           2
    ## # … with 40 more rows
…
``` r
students_lag <-
  students |>
  select(연도, 학생수계) |>
  mutate(전년 = lag(학생수계, 1)) |>
  mutate(
    증감 = 학생수계 - 전년,
    증감율 = round((학생수계 / 전년) - 1, 3) * 100
  )
students_lag
```

    ## # A tibble: 22 × 5
    ##    연도       학생수계    전년    증감 증감율
    ##    <date>        <dbl>   <dbl>   <dbl>  <dbl>
    ##  1 1999-01-01  8658358      NA      NA   NA  
    ##  2 2000-01-01  8535867 8658358 -122491   -1.4
    ##  3 2001-01-01  8414423 8535867 -121444   -1.4
    ##  4 2002-01-01  8361933 8414423  -52490   -0.6
    ##  5 2003-01-01  8379775 8361933   17842    0.2
    ##  6 2004-01-01  8371630 8379775   -8145   -0.1
    ##  7 2005-01-01  8371421 8371630    -209    0  
    ##  8 2006-01-01  8354891 8371421  -16530   -0.2
    ##  9 2007-01-01  8309932 8354891  -44959   -0.5
    ## 10 2008-01-01  8187782 8309932 -122150   -1.5
    ## # … with 12 more rows
…
``` r
students.tsibble |>
  select(1, 2) |>
  mutate(증감 = difference(학생수계, lag = 1)) |>
  mutate(증감율 = round(증감 / 학생수계, 3) * 100)
```

    ## # A tsibble: 22 x 4 [1D]
    ##    연도       학생수계    증감 증감율
    ##    <date>        <dbl>   <dbl>  <dbl>
    ##  1 1999-01-01  8658358      NA   NA  
    ##  2 2000-01-01  8535867 -122491   -1.4
    ##  3 2001-01-01  8414423 -121444   -1.4
    ##  4 2002-01-01  8361933  -52490   -0.6
    ##  5 2003-01-01  8379775   17842    0.2
    ##  6 2004-01-01  8371630   -8145   -0.1
    ##  7 2005-01-01  8371421    -209    0  
    ##  8 2006-01-01  8354891  -16530   -0.2
    ##  9 2007-01-01  8309932  -44959   -0.5
    ## 10 2008-01-01  8187782 -122150   -1.5
    ## # … with 12 more rows
…
## 4.9 월 비중 백분율, 연 비중 백분율

``` r
employees |>
  group_by(year(time)) |>
  mutate(sum.by.year = sum(total)) |>
  ungroup() |>
  mutate(rate.by.year = round(total / sum.by.year, 3) * 100)
```

    ## # A tibble: 96 × 6
    ##    time       total employees.edu `year(time)` sum.by.year rate.by.year
    ##    <date>     <int>         <int>        <dbl>       <int>        <dbl>
    ##  1 2013-01-01 24287          1710         2013      303592          8  
    ##  2 2013-02-01 24215          1681         2013      303592          8  
    ##  3 2013-03-01 24736          1716         2013      303592          8.1
    ##  4 2013-04-01 25322          1745         2013      303592          8.3
    ##  5 2013-05-01 25610          1774         2013      303592          8.4
    ##  6 2013-06-01 25686          1786         2013      303592          8.5
    ##  7 2013-07-01 25681          1813         2013      303592          8.5
    ##  8 2013-08-01 25513          1811         2013      303592          8.4
    ##  9 2013-09-01 25701          1794         2013      303592          8.5
    ## 10 2013-10-01 25798          1790         2013      303592          8.5
    ## # … with 86 more rows

``` r
covid19 |>
  group_by(yearmonth(date)) |>
  mutate(sum.by.month = sum(`0-9세`)) |>
  ungroup() |>
  mutate(rate.by.month = round(`0-9세` / sum.by.month, 3) * 100) |>
  select(date, `0-9세`, sum.by.month, rate.by.month)
```

    ## # A tibble: 302 × 4
    ##    date       `0-9세` sum.by.month rate.by.month
    ##    <date>       <dbl>        <dbl>         <dbl>
    ##  1 2020-04-09       2           14          14.3
    ##  2 2020-04-10       1           14           7.1
    ##  3 2020-04-11       1           14           7.1
    ##  4 2020-04-12       0           14           0  
    ##  5 2020-04-13       2           14          14.3
    ##  6 2020-04-14       0           14           0  
    ##  7 2020-04-15       0           14           0  
    ##  8 2020-04-16       3           14          21.4
    ##  9 2020-04-17       1           14           7.1
    ## 10 2020-04-18       2           14          14.3
    ## # … with 292 more rows

``` r
covid19 |>
  group_by(year(date), month(date), week(date)) |>
  mutate(sum.by.week = sum(`0-9세`)) |>
  ungroup() |>
  mutate(rate.by.week = round(`0-9세` / sum.by.week, 3) * 100) |>
  select(date, `0-9세`, sum.by.week, rate.by.week)
```

    ## # A tibble: 302 × 4
    ##    date       `0-9세` sum.by.week rate.by.week
    ##    <date>       <dbl>       <dbl>        <dbl>
    ##  1 2020-04-09       2           6         33.3
    ##  2 2020-04-10       1           6         16.7
    ##  3 2020-04-11       1           6         16.7
    ##  4 2020-04-12       0           6          0  
    ##  5 2020-04-13       2           6         33.3
    ##  6 2020-04-14       0           6          0  
    ##  7 2020-04-15       0           6          0  
    ##  8 2020-04-16       3           6         50  
    ##  9 2020-04-17       1           6         16.7
    ## 10 2020-04-18       2           6         33.3
    ## # … with 292 more rows

``` r
employees.tsibble |>
  index_by(yearqtr = ~ yearquarter(.)) |>
  mutate(sum.qtrly = sum(total)) |>
  mutate(rate.qtrly = total / sum.qtrly)
```

    ## # A tsibble: 96 x 6 [1D]
    ## # Groups:    @ yearqtr [32]
    ##    time       total employees.edu yearqtr sum.qtrly rate.qtrly
    ##    <date>     <int>         <int>   <qtr>     <int>      <dbl>
    ##  1 2013-01-01 24287          1710 2013 Q1     73238      0.332
    ##  2 2013-02-01 24215          1681 2013 Q1     73238      0.331
    ##  3 2013-03-01 24736          1716 2013 Q1     73238      0.338
    ##  4 2013-04-01 25322          1745 2013 Q2     76618      0.330
    ##  5 2013-05-01 25610          1774 2013 Q2     76618      0.334
    ##  6 2013-06-01 25686          1786 2013 Q2     76618      0.335
    ##  7 2013-07-01 25681          1813 2013 Q3     76895      0.334
    ##  8 2013-08-01 25513          1811 2013 Q3     76895      0.332
    ##  9 2013-09-01 25701          1794 2013 Q3     76895      0.334
    ## 10 2013-10-01 25798          1790 2013 Q4     76841      0.336
    ## # … with 86 more rows

``` r
employees.tsibble |>
  index_by(year = ~ year(.)) |>
  mutate(sum.year = sum(total)) |>
  mutate(rate.year = (total / sum.year) * 100)
```

    ## # A tsibble: 96 x 6 [1D]
    ## # Groups:    @ year [8]
    ##    time       total employees.edu  year sum.year rate.year
    ##    <date>     <int>         <int> <dbl>    <int>     <dbl>
    ##  1 2013-01-01 24287          1710  2013   303592      8.00
    ##  2 2013-02-01 24215          1681  2013   303592      7.98
    ##  3 2013-03-01 24736          1716  2013   303592      8.15
    ##  4 2013-04-01 25322          1745  2013   303592      8.34
    ##  5 2013-05-01 25610          1774  2013   303592      8.44
    ##  6 2013-06-01 25686          1786  2013   303592      8.46
    ##  7 2013-07-01 25681          1813  2013   303592      8.46
    ##  8 2013-08-01 25513          1811  2013   303592      8.40
    ##  9 2013-09-01 25701          1794  2013   303592      8.47
    ## 10 2013-10-01 25798          1790  2013   303592      8.50
    ## # … with 86 more rows
…
``` r
employees |>
  group_by(year(time)) |>
  mutate(
    cumsum.total = cumsum(total),
    cumsum.edu = cumsum(employees.edu)
  ) |>
  select(time, total, cumsum.total, employees.edu, cumsum.edu)
```

    ## Adding missing grouping variables: `year(time)`

    ## # A tibble: 96 × 6
    ## # Groups:   year(time) [8]
    ##    `year(time)` time       total cumsum.total employees.edu cumsum.edu
    ##           <dbl> <date>     <int>        <int>         <int>      <int>
    ##  1         2013 2013-01-01 24287        24287          1710       1710
    ##  2         2013 2013-02-01 24215        48502          1681       3391
    ##  3         2013 2013-03-01 24736        73238          1716       5107
    ##  4         2013 2013-04-01 25322        98560          1745       6852
    ##  5         2013 2013-05-01 25610       124170          1774       8626
    ##  6         2013 2013-06-01 25686       149856          1786      10412
    ##  7         2013 2013-07-01 25681       175537          1813      12225
    ##  8         2013 2013-08-01 25513       201050          1811      14036
    ##  9         2013 2013-09-01 25701       226751          1794      15830
    ## 10         2013 2013-10-01 25798       252549          1790      17620
    ## # … with 86 more rows

``` r
employees.tsibble |>
  index_by(yearqtr = ~ yearquarter(.)) |>
  mutate(cumsum.qtrly = cumsum(total)) |>
  select(yearqtr, cumsum.qtrly)
```

    ## # A tsibble: 96 x 3 [1D]
    ## # Groups:    @ yearqtr [32]
    ##    yearqtr cumsum.qtrly time      
    ##      <qtr>        <int> <date>    
    ##  1 2013 Q1        24287 2013-01-01
    ##  2 2013 Q1        48502 2013-02-01
    ##  3 2013 Q1        73238 2013-03-01
    ##  4 2013 Q2        25322 2013-04-01
    ##  5 2013 Q2        50932 2013-05-01
    ##  6 2013 Q2        76618 2013-06-01
    ##  7 2013 Q3        25681 2013-07-01
    ##  8 2013 Q3        51194 2013-08-01
    ##  9 2013 Q3        76895 2013-09-01
    ## 10 2013 Q4        25798 2013-10-01
    ## # … with 86 more rows

``` r
covid19.tsibble[, c(1, 3)] |>
  index_by(yearweek = ~ yearweek(.)) |>
  mutate(cumsum.weekly = cumsum(`0-9세`))
```

    ## # A tsibble: 302 x 4 [1D]
    ## # Groups:    @ yearweek [45]
    ##    date       `0-9세` yearweek cumsum.weekly
    ##    <date>       <dbl>   <week>         <dbl>
    ##  1 2020-04-09       2 2020 W15             2
    ##  2 2020-04-10       1 2020 W15             3
    ##  3 2020-04-11       1 2020 W15             4
    ##  4 2020-04-12       0 2020 W15             4
    ##  5 2020-04-13       2 2020 W16             2
    ##  6 2020-04-14       0 2020 W16             2
    ##  7 2020-04-15       0 2020 W16             2
    ##  8 2020-04-16       3 2020 W16             5
    ##  9 2020-04-17       1 2020 W16             6
    ## 10 2020-04-18       2 2020 W16             8
    ## # … with 292 more rows
…
